Capítulo 14 Resumiendo y relacionado los datos | Aprendiendo R sin morir en el intento
…
Si te fijas solo deberíamos filtrar los registros que sean female y male. Vamos a hacerlo de forma automática en base a dicho umbral.

# Podemos filtrar por grupos solo aquellos que superen un
# un umbral mínimo
starwars %>% 
  group_by(sex) %>% 
  filter(n() > 10) %>%
  ungroup()

## # A tibble: 76 × 14
##    name    height  mass hair_color  skin_color eye_color birth_year sex   gender
##    <chr>    <int> <dbl> <chr>       <chr>      <chr>          <dbl> <chr> <chr> 
##  1 Luke S…    172    77 blond       fair       blue            19   male  mascu…
##  2 Darth …    202   136 none        white      yellow          41.9 male  mascu…
##  3 Leia O…    150    49 brown       light      brown           19   fema… femin…
##  4 Owen L…    178   120 brown, grey light      blue            52   male  mascu…
##  5 Beru W…    165    75 brown       light      blue            47   fema… femin…
##  6 Biggs …    183    84 black       light      brown           24   male  mascu…
##  7 Obi-Wa…    182    77 auburn, wh… fair       blue-gray       57   male  mascu…
##  8 Anakin…    188    84 blond       fair       blue            41.9 male  mascu…
##  9 Wilhuf…    180    NA auburn, gr… fair       blue            64   male  mascu…
## 10 Chewba…    228   112 brown       unknown    blue           200   male  mascu…
## # … with 66 more rows, and 5 more variables: homeworld <chr>, species <chr>,
## #   films <list>, vehicles <list>, starships <list>
…
14.2.2 Rowwise: operaciones por filas

Por último veamos un ejemplo de una opción muy útil usada antes de una operación que es rowwise(): toda operación que venga después se aplicará en cada fila por separado. Para el ejemplo vamos a definir un fichero dummy de notas en mates, lengua y dibujo de 50 alumnos. Para ello usamos la función sample(): le decimos que seleccione aleatoriamente size = 50 notas de un conjunto de notas posibles (0:10), y que lo haga con reemplazamiento (replace = TRUE, es decir, que dos alumnos puedan tener la misma nota)

notas <- tibble("mates" = sample(0:10, size = 50, replace = TRUE),
                "lengua" = sample(0:10, size = 50, replace = TRUE),
                "dibujo" = sample(0:10, size = 50, replace = TRUE))
notas

## # A tibble: 50 × 3
##    mates lengua dibujo
##    <int>  <int>  <int>
##  1     0      7      5
##  2     8      2      1
##  3     9      7      0
##  4     9      9      9
##  5     1      6      5
##  6     0      1      4
##  7     9      5      1
##  8     0      3      3
##  9     1      7      6
## 10     7      2      5
## # … with 40 more rows

Una vez que tenemos 3 notas aleatorias por cada uno de los 50 alumnos, ¿qué sucede si yo quiero calcular la nota media del curso?

notas %>% mutate(media_curso = mean(c(mates, lengua, dibujo)))

## # A tibble: 50 × 4
##    mates lengua dibujo media_curso
##    <int>  <int>  <int>       <dbl>
##  1     0      7      5        4.64
##  2     8      2      1        4.64
##  3     9      7      0        4.64
##  4     9      9      9        4.64
##  5     1      6      5        4.64
##  6     0      1      4        4.64
##  7     9      5      1        4.64
##  8     0      3      3        4.64
##  9     1      7      6        4.64
## 10     7      2      5        4.64
## # … with 40 more rows

Como ves si aplicamos la media de las tres variables, en cada fila el valor de media_curso es idéntico ya que nos ha hecho la media global: ha tomado las 50 filas, las 3 columnas, y ha hecho la media de 150 datos. Cuando en realidad a nosotros nos gustaría sacar una media por registro, que para cada alumno tengamos la media de las asignaturas.

# Aplicado por fila
notas %>% rowwise() %>%
  mutate(media_curso = mean(c(mates, lengua, dibujo)))

## # A tibble: 50 × 4
## # Rowwise: 
##    mates lengua dibujo media_curso
##    <int>  <int>  <int>       <dbl>
##  1     0      7      5        4   
##  2     8      2      1        3.67
##  3     9      7      0        5.33
##  4     9      9      9        9   
##  5     1      6      5        4   
##  6     0      1      4        1.67
##  7     9      5      1        5   
##  8     0      3      3        2   
##  9     1      7      6        4.67
## 10     7      2      5        4.67
## # … with 40 more rows
…
flights: datos de vuelos (con tailnum como marca de idenfiticación).

planes: datos de los aviones.

weather: datos meteorológicos horarios de las estaciones LGA, JFK y EWR.

Veamos un ejemplo: imagina que queremos completar en la tabla de vuelos los datos de cada una de las aerolíneas que operan dichos vuelos. Vamos a seleccionar unas pocas columnas para que sea más fácil de visualizar.

# Seleccionamos antes columnas para que sea más corto
flights_filtrada <- flights %>%
  select(year:day, arr_time, carrier:dest)
flights_filtrada

## # A tibble: 336,776 × 9
##     year month   day arr_time carrier flight tailnum origin dest 
##    <int> <int> <int>    <int> <chr>    <int> <chr>   <chr>  <chr>
##  1  2013     1     1      830 UA        1545 N14228  EWR    IAH  
##  2  2013     1     1      850 UA        1714 N24211  LGA    IAH  
##  3  2013     1     1      923 AA        1141 N619AA  JFK    MIA  
##  4  2013     1     1     1004 B6         725 N804JB  JFK    BQN  
##  5  2013     1     1      812 DL         461 N668DN  LGA    ATL  
##  6  2013     1     1      740 UA        1696 N39463  EWR    ORD  
##  7  2013     1     1      913 B6         507 N516JB  EWR    FLL  
##  8  2013     1     1      709 EV        5708 N829AS  LGA    IAD  
##  9  2013     1     1      838 B6          79 N593JB  JFK    MCO  
## 10  2013     1     1      753 AA         301 N3ALAA  LGA    ORD  
## # … with 336,766 more rows

Queremos TODAS las filas de los vuelos, todos sus registros, pero añadiendo la información que tenemos de la aerolínea que opere los vuelos, así que haremos un LEFT JOIN de flights vs airlines. El campo común que nos permite cruzarla, la clave (key) es el código abreviado de las aerolíneas (variable carrier).

# Mismas filas pero con una nueva columna: siempre que sea
# posible el cruce tendrá la info de la aerolínea
l_join_flights_airlines <-
  flights_filtrada %>% left_join(airlines, by = "carrier")
l_join_flights_airlines

## # A tibble: 336,776 × 10
##     year month   day arr_time carrier flight tailnum origin dest  name          
##    <int> <int> <int>    <int> <chr>    <int> <chr>   <chr>  <chr> <chr>         
##  1  2013     1     1      830 UA        1545 N14228  EWR    IAH   United Air Li…
##  2  2013     1     1      850 UA        1714 N24211  LGA    IAH   United Air Li…
##  3  2013     1     1      923 AA        1141 N619AA  JFK    MIA   American Airl…
##  4  2013     1     1     1004 B6         725 N804JB  JFK    BQN   JetBlue Airwa…
##  5  2013     1     1      812 DL         461 N668DN  LGA    ATL   Delta Air Lin…
##  6  2013     1     1      740 UA        1696 N39463  EWR    ORD   United Air Li…
##  7  2013     1     1      913 B6         507 N516JB  EWR    FLL   JetBlue Airwa…
##  8  2013     1     1      709 EV        5708 N829AS  LGA    IAD   ExpressJet Ai…
##  9  2013     1     1      838 B6          79 N593JB  JFK    MCO   JetBlue Airwa…
## 10  2013     1     1      753 AA         301 N3ALAA  LGA    ORD   American Airl…
## # … with 336,766 more rows
…
En este caso todos los registros de la primera tabla tenían su correspondencia en la segunda tabla. Veamos un ejemplo donde suceda eso, quitándole algunas filas a airlines, quitando las aerolíneas con códigos "B6".

airlines_filtrada <- airlines %>% 
  filter(!(carrier %in% c("B6")))
l_join <- flights_filtrada %>% left_join(airlines_filtrada, by = "carrier")
dim(l_join %>% filter(is.na(name)))

## [1] 54635    10

En el anterior ejemplo tenemos 54 635 filas que cuyo nombre está ausente, es decir, 54 635 filas de flights que no tienen correspondencia en la tabla filtrada airlines_filtrada. Ahora las filas que no han encontrado su match en la segunda tabla están como campo ausente.

l_join

## # A tibble: 336,776 × 10
##     year month   day arr_time carrier flight tailnum origin dest  name          
##    <int> <int> <int>    <int> <chr>    <int> <chr>   <chr>  <chr> <chr>         
##  1  2013     1     1      830 UA        1545 N14228  EWR    IAH   United Air Li…
##  2  2013     1     1      850 UA        1714 N24211  LGA    IAH   United Air Li…
##  3  2013     1     1      923 AA        1141 N619AA  JFK    MIA   American Airl…
##  4  2013     1     1     1004 B6         725 N804JB  JFK    BQN   <NA>          
##  5  2013     1     1      812 DL         461 N668DN  LGA    ATL   Delta Air Lin…
##  6  2013     1     1      740 UA        1696 N39463  EWR    ORD   United Air Li…
##  7  2013     1     1      913 B6         507 N516JB  EWR    FLL   <NA>          
##  8  2013     1     1      709 EV        5708 N829AS  LGA    IAD   ExpressJet Ai…
##  9  2013     1     1      838 B6          79 N593JB  JFK    MCO   <NA>          
## 10  2013     1     1      753 AA         301 N3ALAA  LGA    ORD   American Airl…
## # … with 336,766 more rows
…
