Capítulo 11 Tidy data: ordenando datos | Aprendiendo R sin morir en el intento
…
# tibble
tabla_tb <- tibble("x" = 1:50,
             "y" = rep(c("a", "b", "c", "d", "e"), 10),
             "z" = 11:60,
             "logica" = rep(c(TRUE, TRUE, FALSE, TRUE, FALSE), 10))
tabla_tb

## # A tibble: 50 × 4
##        x y         z logica
##    <int> <chr> <int> <lgl> 
##  1     1 a        11 TRUE  
##  2     2 b        12 TRUE  
##  3     3 c        13 FALSE 
##  4     4 d        14 TRUE  
##  5     5 e        15 FALSE 
##  6     6 a        16 TRUE  
##  7     7 b        17 TRUE  
##  8     8 c        18 FALSE 
##  9     9 d        19 TRUE  
## 10    10 e        20 FALSE 
## # … with 40 more rows

Puedes imprimir las filas y columnas que quieras con print(), pero por defecto te aseguras de no saturar la consola.

print(tabla_tb, n = 13, width = Inf)

## # A tibble: 50 × 4
##        x y         z logica
##    <int> <chr> <int> <lgl> 
##  1     1 a        11 TRUE  
##  2     2 b        12 TRUE  
##  3     3 c        13 FALSE 
##  4     4 d        14 TRUE  
##  5     5 e        15 FALSE 
##  6     6 a        16 TRUE  
##  7     7 b        17 TRUE  
##  8     8 c        18 FALSE 
##  9     9 d        19 TRUE  
## 10    10 e        20 FALSE 
## 11    11 a        21 TRUE  
## 12    12 b        22 TRUE  
## 13    13 c        23 FALSE 
## # … with 37 more rows
…
# tibble
tibble(":)" = "emoticono", " " = "en blanco", "2000" = "número")

## # A tibble: 1 × 3
##   `:)`      ` `       `2000`
##   <chr>     <chr>     <chr> 
## 1 emoticono en blanco número

CONSEJO: convertir a tibble

Si ya tienes un data.frame es altamente recomendable convertirlo a tibble con as_tibble()

as_tibble(tabla_df)

## # A tibble: 50 × 4
##        x y         z logica
##    <int> <fct> <int> <lgl> 
##  1     1 a        11 TRUE  
##  2     2 b        12 TRUE  
##  3     3 c        13 FALSE 
##  4     4 d        14 TRUE  
##  5     5 e        15 FALSE 
##  6     6 a        16 TRUE  
##  7     7 b        17 TRUE  
##  8     8 c        18 FALSE 
##  9     9 d        19 TRUE  
## 10    10 e        20 FALSE 
## # … with 40 more rows
…
Salvo la primera, el resto de columnas tienen como nombre los valores de una variable en sí misma (ingresos). Para ordenar los datos vamos a razonar de la misma manera solo que ahora, en lugar de indicarle el nombre de todas las columnas que queremos usar de entrada, vamos a indicarle de forma más corta la columna que NO queremos seleccionar.

# No necesitamos las comillas en el nombre de columnas salvo que tengan caracteres que no sean letras
relig_income %>% pivot_longer(-religion, names_to = "ingresos",
                              values_to = "frecuencia")

## # A tibble: 180 × 3
##    religion ingresos           frecuencia
##    <chr>    <chr>                   <dbl>
##  1 Agnostic <$10k                      27
##  2 Agnostic $10-20k                    34
##  3 Agnostic $20-30k                    60
##  4 Agnostic $30-40k                    81
##  5 Agnostic $40-50k                    76
##  6 Agnostic $50-75k                   137
##  7 Agnostic $75-100k                  122
##  8 Agnostic $100-150k                 109
##  9 Agnostic >150k                      84
## 10 Agnostic Don't know/refused         96
## # … with 170 more rows
…
Imprime por defecto todas las filas (tiene 32 filas, debería imprimir solo 10 si fuese un tibble, para no saturar consola).

No especifica al imprimir que es de tipo tibble.

No especifica al imprimir el tipo de dato de las columnas.

Imprime el nombre de las filas (el nombre de los modelos) como si fuera una variable (¡que no existe!).

Así debería de salir si fuera tibble.

as_tibble(mtcars)

## # A tibble: 32 × 11
##      mpg   cyl  disp    hp  drat    wt  qsec    vs    am  gear  carb
##    <dbl> <dbl> <dbl> <dbl> <dbl> <dbl> <dbl> <dbl> <dbl> <dbl> <dbl>
##  1  21       6  160    110  3.9   2.62  16.5     0     1     4     4
##  2  21       6  160    110  3.9   2.88  17.0     0     1     4     4
##  3  22.8     4  108     93  3.85  2.32  18.6     1     1     4     1
##  4  21.4     6  258    110  3.08  3.22  19.4     1     0     3     1
##  5  18.7     8  360    175  3.15  3.44  17.0     0     0     3     2
##  6  18.1     6  225    105  2.76  3.46  20.2     1     0     3     1
##  7  14.3     8  360    245  3.21  3.57  15.8     0     0     3     4
##  8  24.4     4  147.    62  3.69  3.19  20       1     0     4     2
##  9  22.8     4  141.    95  3.92  3.15  22.9     1     0     4     2
## 10  19.2     6  168.   123  3.92  3.44  18.3     1     0     4     4
## # … with 22 more rows
…
