Capítulo 8 Importando/exportando | Aprendiendo R sin morir en el intento
…
head(datasets::Titanic)

## [1]  0  0 35  0  0  0

Veamos otro ejemplo con uno de los paquetes más útiles para conseguir datos, el paquete del EUROSTAT.

library(eurostat)

# Buscamos datos por palabras clave
search_eurostat("education")

## # A tibble: 1,062 × 8
##    title   code  type  `last update of… `last table str… `data start` `data end`
##    <chr>   <chr> <chr> <chr>            <chr>            <chr>        <chr>     
##  1 Popula… cens… data… 01.04.2019       08.02.2021       2011         2011      
##  2 Popula… cens… data… 26.08.2015       08.02.2021       2011         2011      
##  3 Employ… cens… data… 26.03.2009       08.02.2021       2001         2001      
##  4 Popula… cens… data… 26.03.2009       08.02.2021       2001         2001      
##  5 Pupils… educ… data… 14.12.2021       08.02.2021       2013         2019      
##  6 Pupils… educ… data… 14.12.2021       08.02.2021       2013         2019      
##  7 Pupils… educ… data… 14.12.2021       08.02.2021       2013         2019      
##  8 Pupils… educ… data… 14.12.2021       08.02.2021       2013         2019      
##  9 Pupils… educ… data… 14.12.2021       08.02.2021       2013         2019      
## 10 Studen… educ… data… 14.12.2021       08.02.2021       2013         2019      
## # … with 1,052 more rows, and 1 more variable: values <chr>

# Accedemos a un dato concreto por codigo
get_eurostat("hlth_ehis_de3")

## # A tibble: 1,536 × 6
##    sex   age    isced97 geo   time       values
##    <chr> <chr>  <chr>   <chr> <date>      <dbl>
##  1 F     TOTAL  ED0-2   BE    2008-01-01   19.1
##  2 F     TOTAL  ED3_4   BE    2008-01-01   20.2
##  3 F     TOTAL  ED5_6   BE    2008-01-01   11.5
##  4 F     TOTAL  TOTAL   BE    2008-01-01   17  
##  5 F     Y15-24 ED0-2   BE    2008-01-01   17.1
##  6 F     Y15-24 ED3_4   BE    2008-01-01   21.3
##  7 F     Y15-24 ED5_6   BE    2008-01-01   10.3
##  8 F     Y15-24 TOTAL   BE    2008-01-01   16.1
##  9 F     Y25-34 ED0-2   BE    2008-01-01   29.3
## 10 F     Y25-34 ED3_4   BE    2008-01-01   27.4
## # … with 1,526 more rows
…
