Capítulo 16 Recursos extras | Aprendiendo R sin morir en el intento
…
Sistema de coordenadas (coord): coordenadas, grids, etc.

Componer gráficas (facet): visualizar varias gráficas a la vez.

Temas (theme): fuente, tamaño de letra, subtítulos, captions, etc.

16.4 Primer intento: scatter plot o diagrama de puntos

Veamos un primer intento para entender la filosofía. Imagina que queremos dibujar un scatter plot o diagrama de (dispersión) de puntos. Para ello vamos a usar el conjunto de datos gapminder del paquete homónimo, un fichero con datos de esperanzas de vida, poblaciones y renta per cápita de distintos países en distintos momentos temporales.

library(gapminder)
gapminder

## # A tibble: 1,704 × 6
##    country     continent  year lifeExp      pop gdpPercap
##    <fct>       <fct>     <int>   <dbl>    <int>     <dbl>
##  1 Afghanistan Asia       1952    28.8  8425333      779.
##  2 Afghanistan Asia       1957    30.3  9240934      821.
##  3 Afghanistan Asia       1962    32.0 10267083      853.
##  4 Afghanistan Asia       1967    34.0 11537966      836.
##  5 Afghanistan Asia       1972    36.1 13079460      740.
##  6 Afghanistan Asia       1977    38.4 14880372      786.
##  7 Afghanistan Asia       1982    39.9 12881816      978.
##  8 Afghanistan Asia       1987    40.8 13867957      852.
##  9 Afghanistan Asia       1992    41.7 16317921      649.
## 10 Afghanistan Asia       1997    41.8 22227415      635.
## # … with 1,694 more rows
…
## Rows: 1,704
## Columns: 6
## $ country   <fct> "Afghanistan", "Afghanistan", "Afghanistan", "Afghanistan", …
## $ continent <fct> Asia, Asia, Asia, Asia, Asia, Asia, Asia, Asia, Asia, Asia, …
## $ year      <int> 1952, 1957, 1962, 1967, 1972, 1977, 1982, 1987, 1992, 1997, …
## $ lifeExp   <dbl> 28.801, 30.332, 31.997, 34.020, 36.088, 38.438, 39.854, 40.8…
## $ pop       <int> 8425333, 9240934, 10267083, 11537966, 13079460, 14880372, 12…
## $ gdpPercap <dbl> 779.4453, 820.8530, 853.1007, 836.1971, 739.9811, 786.1134, …

Para empezar con algo sencillo filtraremos solo los datos del año 1997 haciendo uso de filter().

gapminder_1997 <- gapminder %>% filter(year == 1997)
gapminder_1997

## # A tibble: 142 × 6
##    country     continent  year lifeExp       pop gdpPercap
##    <fct>       <fct>     <int>   <dbl>     <int>     <dbl>
##  1 Afghanistan Asia       1997    41.8  22227415      635.
##  2 Albania     Europe     1997    73.0   3428038     3193.
##  3 Algeria     Africa     1997    69.2  29072015     4797.
##  4 Angola      Africa     1997    41.0   9875024     2277.
##  5 Argentina   Americas   1997    73.3  36203463    10967.
##  6 Australia   Oceania    1997    78.8  18565243    26998.
##  7 Austria     Europe     1997    77.5   8069876    29096.
##  8 Bahrain     Asia       1997    73.9    598561    20292.
##  9 Bangladesh  Asia       1997    59.4 123315288      973.
## 10 Belgium     Europe     1997    77.5  10199787    27561.
## # … with 132 more rows
…
