Capítulo 13 Explorando los datos: incursión a tidyverse | Aprendiendo R sin morir en el intento
…
Intentaremos que nuestros datos sean Tidy data

Conocemos un formato amable de almacenar los datos como son los data.frame de tipo tibble

Sin embargo muchas veces los datos no los tenemos en el formato deseado, o directamente queremos realizar algunas transformaciones en los mismos, crear nuevas variables u obtener resúmenes numéricos. En esta sección aprenderemos a explorar, procesar, depurar, transformar y analizar numéricamente los datos, haciendo uso principalmente de los paquetes tidyverse y skimr

library(tidyverse)
library(skimr)

El entorno tidyverse es una de las herramientas más importantes en el manejo de datos en R, una colección de paquetes pensada para el manejo, la exploración, el análisis y la visualización de datos, compartiendo una misma filosofía y gramática. Puedes ver su documentación en https://www.tidyverse.org/. Esta sección pretende ser una introducción a dicho entorno, y lo haremos principalmente con el conjunto de datos starwars, del paquete dplyr (ya cargado en tidyverse).

starwars

## # A tibble: 87 × 14
##    name    height  mass hair_color  skin_color eye_color birth_year sex   gender
##    <chr>    <int> <dbl> <chr>       <chr>      <chr>          <dbl> <chr> <chr> 
##  1 Luke S…    172    77 blond       fair       blue            19   male  mascu…
##  2 C-3PO      167    75 <NA>        gold       yellow         112   none  mascu…
##  3 R2-D2       96    32 <NA>        white, bl… red             33   none  mascu…
##  4 Darth …    202   136 none        white      yellow          41.9 male  mascu…
##  5 Leia O…    150    49 brown       light      brown           19   fema… femin…
##  6 Owen L…    178   120 brown, grey light      blue            52   male  mascu…
##  7 Beru W…    165    75 brown       light      blue            47   fema… femin…
##  8 R5-D4       97    32 <NA>        white, red red             NA   none  mascu…
##  9 Biggs …    183    84 black       light      brown           24   male  mascu…
## 10 Obi-Wa…    182    77 auburn, wh… fair       blue-gray       57   male  mascu…
## # … with 77 more rows, and 5 more variables: homeworld <chr>, species <chr>,
## #   films <list>, vehicles <list>, starships <list>
…
Los datos podemos verlos escribiendo el nombre de la tabla en la consola (recuerda que si es un tibble, para evitar saturar la consola, te saca un extracto, no todas las columnas y filas) o bien con la función print(), indicándole número de filas (n = 15 por ejemplo) y número de columnas (width = Inf si queremos mostrar todas).

# Imprimir personalizado
print(starwars, n = 5, width = Inf)

## # A tibble: 87 × 14
##   name           height  mass hair_color skin_color  eye_color birth_year sex   
##   <chr>           <int> <dbl> <chr>      <chr>       <chr>          <dbl> <chr> 
## 1 Luke Skywalker    172    77 blond      fair        blue            19   male  
## 2 C-3PO             167    75 <NA>       gold        yellow         112   none  
## 3 R2-D2              96    32 <NA>       white, blue red             33   none  
## 4 Darth Vader       202   136 none       white       yellow          41.9 male  
## 5 Leia Organa       150    49 brown      light       brown           19   female
##   gender    homeworld species films     vehicles  starships
##   <chr>     <chr>     <chr>   <list>    <list>    <list>   
## 1 masculine Tatooine  Human   <chr [5]> <chr [2]> <chr [2]>
## 2 masculine Tatooine  Droid   <chr [6]> <chr [0]> <chr [0]>
## 3 masculine Naboo     Droid   <chr [7]> <chr [0]> <chr [0]>
## 4 masculine Tatooine  Human   <chr [4]> <chr [0]> <chr [1]>
## 5 feminine  Alderaan  Human   <chr [5]> <chr [1]> <chr [0]>
## # … with 82 more rows
…
Imagen/gráfica 13.1: Cheet sheet de las opciones del paquete dplyr para la manipulación de datos extraída de https://github.com/rstudio/cheatsheets/blob/master/data-transformation.pdf

13.1 Operaciones con filas

Empecemos por cómo seleccionar filas. Principalmente tenemos tres opciones: seleccionarlas en base a algún filtro o condición (solo los mayores de tal edad, por ejemplo), extraer filas por su índice de fila o extraer filas aleatoriamente.

13.1.1 Seleccionar filas (filter, slice)

La función filter() nos permite seleccionar filas en base a que se cumpla una o varias condiciones respecto a las variables. Para usarla basta con que introduzcamos como argumento el conjunto de condiciones que debe cumplir (recuerda: nombre de columnas sin comillas). Supongamos que queremos por ejemplo seleccionar solo los personajes con ojos marrones.

starwars %>% filter(eye_color == "brown") # con ojos marrones

## # A tibble: 21 × 14
##    name     height  mass hair_color skin_color eye_color birth_year sex   gender
##    <chr>     <int> <dbl> <chr>      <chr>      <chr>          <dbl> <chr> <chr> 
##  1 Leia Or…    150  49   brown      light      brown           19   fema… femin…
##  2 Biggs D…    183  84   black      light      brown           24   male  mascu…
##  3 Han Solo    180  80   brown      fair       brown           29   male  mascu…
##  4 Yoda         66  17   white      green      brown          896   male  mascu…
##  5 Boba Fe…    183  78.2 black      fair       brown           31.5 male  mascu…
##  6 Lando C…    177  79   black      dark       brown           31   male  mascu…
##  7 Arvel C…     NA  NA   brown      fair       brown           NA   male  mascu…
##  8 Wicket …     88  20   brown      brown      brown            8   male  mascu…
##  9 Quarsh …    183  NA   black      dark       brown           62   <NA>  <NA>  
## 10 Shmi Sk…    163  NA   black      fair       brown           72   fema… femin…
## # … with 11 more rows, and 5 more variables: homeworld <chr>, species <chr>,
## #   films <list>, vehicles <list>, starships <list>

En tan solo una línea hemos hecho más de lo que parece: R ha «recorrido» cada una de las filas y ha ido comprobando que fila cumple la condición y cual no. Con la misma lógica podemos seleccionar los personajes que NO TIENEN ojos marrones, cambiando == por !=

starwars %>% filter(eye_color != "brown") # NO tengan ojos marrones

## # A tibble: 66 × 14
##    name    height  mass hair_color  skin_color eye_color birth_year sex   gender
##    <chr>    <int> <dbl> <chr>       <chr>      <chr>          <dbl> <chr> <chr> 
##  1 Luke S…    172    77 blond       fair       blue            19   male  mascu…
##  2 C-3PO      167    75 <NA>        gold       yellow         112   none  mascu…
##  3 R2-D2       96    32 <NA>        white, bl… red             33   none  mascu…
##  4 Darth …    202   136 none        white      yellow          41.9 male  mascu…
##  5 Owen L…    178   120 brown, grey light      blue            52   male  mascu…
##  6 Beru W…    165    75 brown       light      blue            47   fema… femin…
##  7 R5-D4       97    32 <NA>        white, red red             NA   none  mascu…
##  8 Obi-Wa…    182    77 auburn, wh… fair       blue-gray       57   male  mascu…
##  9 Anakin…    188    84 blond       fair       blue            41.9 male  mascu…
## 10 Wilhuf…    180    NA auburn, gr… fair       blue            64   male  mascu…
## # … with 56 more rows, and 5 more variables: homeworld <chr>, species <chr>,
## #   films <list>, vehicles <list>, starships <list>

También se pueden seleccionar los personajes que tienen los ojos de una serie de colores permitidos.

starwars %>% # con ojos marrones, azules o rojos
  filter(eye_color %in% c("brown", "blue", "red"))

## # A tibble: 45 × 14
##    name    height  mass hair_color  skin_color eye_color birth_year sex   gender
##    <chr>    <int> <dbl> <chr>       <chr>      <chr>          <dbl> <chr> <chr> 
##  1 Luke S…    172    77 blond       fair       blue            19   male  mascu…
##  2 R2-D2       96    32 <NA>        white, bl… red             33   none  mascu…
##  3 Leia O…    150    49 brown       light      brown           19   fema… femin…
##  4 Owen L…    178   120 brown, grey light      blue            52   male  mascu…
##  5 Beru W…    165    75 brown       light      blue            47   fema… femin…
##  6 R5-D4       97    32 <NA>        white, red red             NA   none  mascu…
##  7 Biggs …    183    84 black       light      brown           24   male  mascu…
##  8 Anakin…    188    84 blond       fair       blue            41.9 male  mascu…
##  9 Wilhuf…    180    NA auburn, gr… fair       blue            64   male  mascu…
## 10 Chewba…    228   112 brown       unknown    blue           200   male  mascu…
## # … with 35 more rows, and 5 more variables: homeworld <chr>, species <chr>,
## #   films <list>, vehicles <list>, starships <list>
…
Podemos combinar los índices para extraer por ejemplo solo los pares o filas concretas separadas por los espacios que queramos.

starwars %>% slice(seq(2, nrow(starwars), by = 2)) # filas pares

## # A tibble: 43 × 14
##    name    height  mass hair_color  skin_color eye_color birth_year sex   gender
##    <chr>    <int> <dbl> <chr>       <chr>      <chr>          <dbl> <chr> <chr> 
##  1 C-3PO      167    75 <NA>        gold       yellow         112   none  mascu…
##  2 Darth …    202   136 none        white      yellow          41.9 male  mascu…
##  3 Owen L…    178   120 brown, grey light      blue            52   male  mascu…
##  4 R5-D4       97    32 <NA>        white, red red             NA   none  mascu…
##  5 Obi-Wa…    182    77 auburn, wh… fair       blue-gray       57   male  mascu…
##  6 Wilhuf…    180    NA auburn, gr… fair       blue            64   male  mascu…
##  7 Han So…    180    80 brown       fair       brown           29   male  mascu…
##  8 Jabba …    175  1358 <NA>        green-tan… orange         600   herm… mascu…
##  9 Jek To…    180   110 brown       fair       blue            NA   male  mascu…
## 10 Palpat…    170    75 grey        pale       yellow          82   male  mascu…
## # … with 33 more rows, and 5 more variables: homeworld <chr>, species <chr>,
## #   films <list>, vehicles <list>, starships <list>
…
## # A tibble: 5 × 14
##   name     height  mass hair_color skin_color  eye_color birth_year sex   gender
##   <chr>     <int> <dbl> <chr>      <chr>       <chr>          <dbl> <chr> <chr> 
## 1 Yoda         66    17 white      green       brown            896 male  mascu…
## 2 Poggle …    183    80 none       green       yellow            NA male  mascu…
## 3 Nute Gu…    191    90 none       mottled gr… red               NA male  mascu…
## 4 Jocasta…    167    NA white      fair        blue              NA fema… femin…
## 5 Arvel C…     NA    NA brown      fair        brown             NA male  mascu…
## # … with 5 more variables: homeworld <chr>, species <chr>, films <list>,
## #   vehicles <list>, starships <list>

starwars %>% slice_sample(n = 100, replace = TRUE) # 100 con reemplazamiento

## # A tibble: 100 × 14
##    name     height  mass hair_color skin_color eye_color birth_year sex   gender
##    <chr>     <int> <dbl> <chr>      <chr>      <chr>          <dbl> <chr> <chr> 
##  1 Nien Nu…    160    68 none       grey       black             NA male  mascu…
##  2 Ayla Se…    178    55 none       blue       hazel             48 fema… femin…
##  3 Tarfful     234   136 brown      brown      blue              NA male  mascu…
##  4 Owen La…    178   120 brown, gr… light      blue              52 male  mascu…
##  5 Bail Pr…    191    NA black      tan        brown             67 male  mascu…
##  6 Greedo      173    74 <NA>       green      black             44 male  mascu…
##  7 Ric Olié    183    NA brown      fair       blue              NA <NA>  <NA>  
##  8 Dud Bolt     94    45 none       blue, grey yellow            NA male  mascu…
##  9 Greedo      173    74 <NA>       green      black             44 male  mascu…
## 10 R5-D4        97    32 <NA>       white, red red               NA none  mascu…
## # … with 90 more rows, and 5 more variables: homeworld <chr>, species <chr>,
## #   films <list>, vehicles <list>, starships <list>
…
13.1.2 Reordenar filas (arrange)

Muchas veces necesitamos las filas ordenadas en función del valor de alguna de las variables. Para ello tenemos la función arrange() sin más que pasarle como argumento el nombre de la variable que usaremos para la ordenación

# Con arrange ordenamos en base al orden de la variable que introduzcamos
starwars %>% arrange(height) # de bajitos a altos, yoda al poder

## # A tibble: 87 × 14
##    name     height  mass hair_color skin_color eye_color birth_year sex   gender
##    <chr>     <int> <dbl> <chr>      <chr>      <chr>          <dbl> <chr> <chr> 
##  1 Yoda         66    17 white      green      brown            896 male  mascu…
##  2 Ratts T…     79    15 none       grey, blue unknown           NA male  mascu…
##  3 Wicket …     88    20 brown      brown      brown              8 male  mascu…
##  4 Dud Bolt     94    45 none       blue, grey yellow            NA male  mascu…
##  5 R2-D2        96    32 <NA>       white, bl… red               33 none  mascu…
##  6 R4-P17       96    NA none       silver, r… red, blue         NA none  femin…
##  7 R5-D4        97    32 <NA>       white, red red               NA none  mascu…
##  8 Sebulba     112    40 none       grey, red  orange            NA male  mascu…
##  9 Gasgano     122    NA none       white, bl… black             NA male  mascu…
## 10 Watto       137    NA black      blue, grey yellow            NA male  mascu…
## # … with 77 more rows, and 5 more variables: homeworld <chr>, species <chr>,
## #   films <list>, vehicles <list>, starships <list>

Por defecto la ordenación es de menor a mayor pero podemos invertirlo usando desc().

# Por defecto lo hace ascendente pero podemos cambiarlo
starwars %>% arrange(desc(height))

## # A tibble: 87 × 14
##    name    height  mass hair_color skin_color  eye_color birth_year sex   gender
##    <chr>    <int> <dbl> <chr>      <chr>       <chr>          <dbl> <chr> <chr> 
##  1 Yarael…    264    NA none       white       yellow          NA   male  mascu…
##  2 Tarfful    234   136 brown      brown       blue            NA   male  mascu…
##  3 Lama Su    229    88 none       grey        black           NA   male  mascu…
##  4 Chewba…    228   112 brown      unknown     blue           200   male  mascu…
##  5 Roos T…    224    82 none       grey        orange          NA   male  mascu…
##  6 Grievo…    216   159 none       brown, whi… green, y…       NA   male  mascu…
##  7 Taun We    213    NA none       grey        black           NA   fema… femin…
##  8 Rugor …    206    NA none       green       orange          NA   male  mascu…
##  9 Tion M…    206    80 none       grey        black           NA   male  mascu…
## 10 Darth …    202   136 none       white       yellow          41.9 male  mascu…
## # … with 77 more rows, and 5 more variables: homeworld <chr>, species <chr>,
## #   films <list>, vehicles <list>, starships <list>

La ordenación puede realizarse en base al valor de dos o más variables: ordenará las filas en base a la primera, en caso de empate usará la segunda, en caso de empate la tercera, y así sucesivamente.

# Podemos combinar varios criterios: ordenados de bajitos a altos,
# y en caso de empate, de pesados a ligeros. Un dato NA va siempre al final
starwars %>% arrange(height, desc(mass))

## # A tibble: 87 × 14
##    name     height  mass hair_color skin_color eye_color birth_year sex   gender
##    <chr>     <int> <dbl> <chr>      <chr>      <chr>          <dbl> <chr> <chr> 
##  1 Yoda         66    17 white      green      brown            896 male  mascu…
##  2 Ratts T…     79    15 none       grey, blue unknown           NA male  mascu…
##  3 Wicket …     88    20 brown      brown      brown              8 male  mascu…
##  4 Dud Bolt     94    45 none       blue, grey yellow            NA male  mascu…
##  5 R2-D2        96    32 <NA>       white, bl… red               33 none  mascu…
##  6 R4-P17       96    NA none       silver, r… red, blue         NA none  femin…
##  7 R5-D4        97    32 <NA>       white, red red               NA none  mascu…
##  8 Sebulba     112    40 none       grey, red  orange            NA male  mascu…
##  9 Gasgano     122    NA none       white, bl… black             NA male  mascu…
## 10 Watto       137    NA black      blue, grey yellow            NA male  mascu…
## # … with 77 more rows, and 5 more variables: homeworld <chr>, species <chr>,
## #   films <list>, vehicles <list>, starships <list>
…
13.1.3 Eliminar filas. Eliminar duplicados

La misma lógica que hemos usado para seleccionar filas podemos usarla para eliminar filas, simplemente negando la condición de filtrado. Por ejemplo, vamos a eliminar las 5 primeras filas.

# Eliminamos por índices
starwars %>% slice(-(1:5)) # eliminamos las 5 primeras filas

## # A tibble: 82 × 14
##    name    height  mass hair_color  skin_color eye_color birth_year sex   gender
##    <chr>    <int> <dbl> <chr>       <chr>      <chr>          <dbl> <chr> <chr> 
##  1 Owen L…    178   120 brown, grey light      blue            52   male  mascu…
##  2 Beru W…    165    75 brown       light      blue            47   fema… femin…
##  3 R5-D4       97    32 <NA>        white, red red             NA   none  mascu…
##  4 Biggs …    183    84 black       light      brown           24   male  mascu…
##  5 Obi-Wa…    182    77 auburn, wh… fair       blue-gray       57   male  mascu…
##  6 Anakin…    188    84 blond       fair       blue            41.9 male  mascu…
##  7 Wilhuf…    180    NA auburn, gr… fair       blue            64   male  mascu…
##  8 Chewba…    228   112 brown       unknown    blue           200   male  mascu…
##  9 Han So…    180    80 brown       fair       brown           29   male  mascu…
## 10 Greedo     173    74 <NA>        green      black           44   male  mascu…
## # … with 72 more rows, and 5 more variables: homeworld <chr>, species <chr>,
## #   films <list>, vehicles <list>, starships <list>

Otra opción a la hora de eliminar filas es eliminar filas duplicadas (o filas con valores duplicados en alguna columna). Para ello deberemos aplicar la función distinct(), con argumentos el nombre de las variables que usaremos para quitar duplicados.

# Eliminamos duplicados
starwars %>% # Eliminamos registros con igual par (color_pelo, color_ojos)
  distinct(hair_color, eye_color)

## # A tibble: 35 × 2
##    hair_color    eye_color
##    <chr>         <chr>    
##  1 blond         blue     
##  2 <NA>          yellow   
##  3 <NA>          red      
##  4 none          yellow   
##  5 brown         brown    
##  6 brown, grey   blue     
##  7 brown         blue     
##  8 black         brown    
##  9 auburn, white blue-gray
## 10 auburn, grey  blue     
## # … with 25 more rows
…
